{
    "Version": "2012-10-17",
    "Statement": [
        {
            "Resource": "*",
            "Effect": "Allow",
            "Action": [
                "access-analyzer:*",
                "account:DeleteAlternateContact",
                "account:Get*",
                "account:List*",
                "account:PutAlternateContact",
                "acm:*",
                "airflow:*",
                "amplify:*",
                "amplifybackend:*",
                "amplifyuibuilder:*",
                "aoss:*",
                "apigateway:*",
                "application-autoscaling:*",
                "auditmanager:*",
                "athena:*",
                "autoscaling:*",
                "autoscaling-plans:*",
                "aws-marketplace:*",
                "aws-marketplace-management:*",
                "backup:*",
				"backup-storage:*",
                "batch:*",
                "bcm-data-exports:*",
                "bedrock:*",
                "billing:Get*",
                "billing:List*",
                "billing:RedeemCredits",
                "budgets:*",
                "ce:*",
                "cloudformation:*",
                "cloudhsm:*",
                "cloudtrail:*",
                "cloudwatch:*",
                "codebuild:*",
                "codecommit:*",
                "codedeploy:*",
                "codepipeline:*",
                "codestar:*",
                "cognito-identity:*",
                "cognito-sync:*",
                "cognito-idp:*",
                "comprehend:*",
                "comprehendmedical:*",
                "compute-optimizer:*",
                "config:*",
                "consolidatedbilling:Get*",
                "consolidatedbilling:List*",
                "cost-optimization-hub:*",
                "cur:*",
                "databrew:*",
                "dataexchange:*",
                "datasync:*",
                "datazone:*",
                "dbqms:*",
                "dlm:*",
                "dms:*",
                "ds:*",
                "dynamodb:*",
                "ec2:*",
                "ec2messages:*",
                "ecr:*",
                "ecs:*",
                "eks:*",
                "elastic-inference:Connect",
                "elasticache:*",
                "elasticbeanstalk:*",
                "elasticfilesystem:*",
                "elasticloadbalancing:*",
                "elasticmapreduce:*",
                "emr-serverless:*",
                "es:*",
                "events:*",
                "firehose:*",
                "fms:*",
                "freetier:*",
                "fsx:*",
                "geo:*",
                "glacier:*",
                "glue:*",
                "groundtruthlabeling:*",
                "guardduty:*",
                "health:*",
                "healthlake:*",
                "iam:AddClientIDToOpenIDConnectProvider",
                "iam:AddRoleToInstanceProfile",
                "iam:AddUserToGroup",
                "iam:AttachRolePolicy",
                "iam:AttachUserPolicy",
                "iam:ChangePassword",
                "iam:CreateAccessKey",
                "iam:CreateAccountAlias",
                "iam:CreateInstanceProfile",
                "iam:CreateLoginProfile",
                "iam:CreateOpenIDConnectProvider",
                "iam:CreatePolicy",
                "iam:CreatePolicyVersion",
                "iam:CreateRole",
                "iam:CreateSAMLProvider",
                "iam:CreateServiceLinkedRole",
                "iam:CreateServiceSpecificCredential",
                "iam:CreateUser",
                "iam:CreateVirtualMFADevice",
                "iam:DeactivateMFADevice",
                "iam:DeleteAccessKey",
                "iam:DeleteAccountAlias",
                "iam:DeleteInstanceProfile",
                "iam:DeleteLoginProfile",
                "iam:DeleteOpenIDConnectProvider",
                "iam:DeletePolicy",
                "iam:DeletePolicyVersion",
                "iam:DeleteRole",
                "iam:DeleteRolePolicy",
                "iam:DeleteSAMLProvider",
                "iam:DeleteServerCertificate",
                "iam:DeleteServiceLinkedRole",
                "iam:DeleteServiceSpecificCredential",
                "iam:DeleteSigningCertificate",
                "iam:DeleteSSHPublicKey",
                "iam:DeleteUser",
                "iam:DeleteUserPolicy",
                "iam:DeleteVirtualMFADevice",
                "iam:DetachRolePolicy",
                "iam:DetachUserPolicy",
                "iam:DetachGroupPolicy",
                "iam:EnableMFADevice",
                "iam:GenerateCredentialReport",
                "iam:GenerateServiceLastAccessedDetails",
                "iam:GetAccessKeyLastUsed",
                "iam:GetAccountAuthorizationDetails",
                "iam:GetAccountPasswordPolicy",
                "iam:GetAccountSummary",
                "iam:GetContextKeysForCustomPolicy",
                "iam:GetContextKeysForPrincipalPolicy",
                "iam:GetCredentialReport",
                "iam:GetGroup",
                "iam:GetGroupPolicy",
                "iam:GetInstanceProfile",
                "iam:GetLoginProfile",
                "iam:GetOpenIDConnectProvider",
                "iam:GetPolicy",
                "iam:GetPolicyVersion",
                "iam:GetRole",
                "iam:GetRolePolicy",
                "iam:GetSAMLProvider",
                "iam:GetServerCertificate",
                "iam:GetServiceLastAccessedDetails",
                "iam:GetServiceLastAccessedDetailsWithEntities",
                "iam:GetServiceLinkedRoleDeletionStatus",
                "iam:GetSSHPublicKey",
                "iam:GetUser",
                "iam:GetUserPolicy",
                "iam:List*",
                "iam:PassRole",
                "iam:PutRolePolicy",
                "iam:PutUserPolicy",
                "iam:RemoveClientIDFromOpenIDConnectProvider",
                "iam:RemoveRoleFromInstanceProfile",
                "iam:RemoveUserFromGroup",
                "iam:ResetServiceSpecificCredential",
                "iam:ResyncMFADevice",
                "iam:SetDefaultPolicyVersion",
                "iam:SimulateCustomPolicy",
                "iam:SimulatePrincipalPolicy",
                "iam:TagInstanceProfile",
                "iam:TagPolicy",
                "iam:TagRole",
                "iam:UntagInstanceProfile",
                "iam:UntagPolicy",
                "iam:UntagRole",
                "iam:UpdateAccessKey",
                "iam:UpdateAssumeRolePolicy",
                "iam:UpdateLoginProfile",
                "iam:UpdateOpenIDConnectProviderThumbprint",
                "iam:UpdateRole",
                "iam:UpdateRoleDescription",
                "iam:UpdateSAMLProvider",
                "iam:UpdateServerCertificate",
                "iam:UpdateServiceSpecificCredential",
                "iam:UpdateSigningCertificate",
                "iam:UpdateSSHPublicKey",
                "iam:UploadServerCertificate",
                "iam:UploadSigningCertificate",
                "iam:UploadSSHPublicKey",
                "imagebuilder:*",
                "inspector:*",
                "inspector2:*",
                "invoicing:*",
                "iot:*",
                "kinesis:*",
                "kinesisanalytics:*",
                "kinesisvideo:*",
                "kms:*",
                "lakeformation:*",
                "lambda:*",
                "logs:*",
                "mediastore:*",
                "mq:*",
                "notifications:*",
                "notifications-contacts:*",
                "opsworks:*",
                "opsworks-cm:*",
                "organizations:DescribeOrganization",
                "organizations:DescribeAccount",
                "organizations:ListAccountsForParent",
                "organizations:ListOrganizationalUnitsForParent",
                "organizations:ListRoots",
                "payments:Get*",
                "payments:List*",
                "pi:*",
                "polly:*",
                "pricing:*",
                "quicksight:*",
                "ram:AssociateResourceShare",
                "ram:CreateResourceShare",
                "ram:DeleteResourceShare",
                "ram:DisassociateResourceShare",
                "ram:Get*",
                "ram:List*",
                "ram:UpdateResourceShare",
                "rds:*",
                "rds-data:*",
                "redshift:*",
                "redshift-data:*",
                "redshift-serverless:*",
                "rekognition:*",
                "resource-explorer-2:*",
                "resource-groups:*",
                "route53:*",
                "s3:*",
                "sagemaker:*",
                "scheduler:*",
				"schemas:*",
                "secretsmanager:*",
                "securityhub:*",
                "servicecatalog:*",
                "servicequotas:*",
                "ses:*",
                "snowball:*",
                "sns:*",
                "sqlworkbench:*",
                "sqs:*",
                "ssm:*",
                "ssm-contacts:*",
                "ssm-incidents:*",
                "ssm-quicksetup:*",
                "ssmmessages:*",
                "states:*",
                "storagegateway:*",
                "sts:*",
                "support:*",
                "swf:*",
                "tag:*",
                "tax:List*",
                "textract:*",
                "transcribe:*",
                "translate:*",
                "trustedadvisor:*",
                "workspaces:*",
                "xray:*"
            ]
        },
        {
            "Sid": "JCONNERDenyCreditRedemptionUnlessLimitedElevatedRole",
            "Effect": "Deny",
            "Action": [
                "billing:RedeemCredits"
            ],
            "Resource": "*",
            "Condition": {
                "StringNotLike": {
                    "aws:PrincipalArn": [
                        "arn:aws:iam::*:role/rhedcloud/RHEDcloudCentralAdministratorRole",
                        "arn:aws:iam::*:role/rhedcloud/RHEDcloudMaintenanceOperatorRole"
                    ]
        
                }
            }
        },
        {
			"Sid": "OpenSearch",
			"Effect": "Deny",
			"Action": [
                "es:*"
			],
			"Resource": [
				"*"
			],
			"Condition": {
				"StringNotEquals": {
					"aws:PrincipalAccount": [
						"087004753264"
					]
				}
			}
		},
        {
			"Sid": "LocationService",
			"Effect": "Deny",
			"Action": [
                "geo:*"
			],
			"Resource": [
				"*"
			],
			"Condition": {
				"StringNotEquals": {
					"aws:PrincipalAccount": [
						"087004753264"
					]
				}
			}
		},
        {
			"Sid": "EKS",
			"Effect": "Deny",
			"Action": [
                "eks:*"
			],
			"Resource": [
				"*"
			],
			"Condition": {
				"StringNotEquals": {
					"aws:PrincipalAccount": [
						"979641882434",
                        "857209606196",
                        "904474485497",
                        "730335245963",
                        "992382774798",
                        "767398075294",
                        "533267031697",
                        "492078539128",
                        "181064032766",
                        "905418010311",
                        "418617800149"
					]
				}
			}
		},
        {
			"Sid": "RedshiftServerless",
			"Effect": "Deny",
			"Action": [
                "redshift-serverless:*"
			],
			"Resource": [
				"*"
			],
			"Condition": {
				"StringNotEquals": {
					"aws:PrincipalAccount": [
						"979707920806",
                        "377681199153",
                        "660193897484",
                        "274999631079",
                        "857209606196",
                        "418617800149"
					]
				}
			}
		},
        {
			"Sid": "DataZonePOC",
			"Effect": "Deny",
			"Action": [
                "datazone:*"
			],
			"Resource": [
				"*"
			],
			"Condition": {
				"StringNotEquals": {
					"aws:PrincipalAccount": [
						"582618399899",
                        "391591513165"
					]
				}
			}
		},
        {
			"Sid": "AirFlow",
			"Effect": "Deny",
			"Action": [
                "airflow:*"
			],
			"Resource": [
				"*"
			],
			"Condition": {
				"StringNotEquals": {
					"aws:PrincipalAccount": [
						"857209606196",
                        "492078539128",
                        "181064032766",
                        "953051831925",
                        "905418010311",
                        "418617800149"
					]
				}
			}
		},
        {
			"Sid": "Amplify",
			"Effect": "Deny",
			"Action": [
                "amplify:*",
                "amplifybackend:*",
                "amplifyuibuilder:*"
			],
			"Resource": [
				"*"
			],
			"Condition": {
				"StringNotEquals": {
					"aws:PrincipalAccount": [
						"240116971379"
					]
				}
			}
		},
        {
			"Sid": "Cognito",
			"Effect": "Deny",
			"Action": [
                "cognito-identity:*",
                "cognito-sync:*",
                "cognito-idp:*"
			],
			"Resource": [
				"*"
			],
			"Condition": {
				"StringNotEquals": {
					"aws:PrincipalAccount": [
						"087004753264"
					]
				}
			}
		},
        {
			"Sid": "SQLWorkBench",
			"Effect": "Deny",
			"Action": [
                "sqlworkbench:*"
			],
			"Resource": [
				"*"
			],
			"Condition": {
				"StringNotEquals": {
					"aws:PrincipalAccount": [
						"181064032766",
                        "492078539128",
                        "857209606196",
                        "418617800149"
					]
				}
			}
		},
        {
            "Sid": "OpenSearchServerless",
            "Effect": "Deny",
            "Action": [
                "aoss:*"
            ],
            "Resource": "*",
            "Condition": {
                "StringNotEquals": {
                    "aws:PrincipalAccount": [
                        "905418010311",
                        "087004753264"
                    ]
                }
            }
        },
        {
            "Sid": "Textract",
            "Effect": "Deny",
            "Action": [
                "textract:*"
            ],
            "Resource": "*",
            "Condition": {
                "StringNotEquals": {
                    "aws:PrincipalAccount": [
                        "533267031697",
                        "905418010311",
                        "982081084949"
                    ]
                }
            }
        },
        {
            "Sid": "Workspaces",
            "Effect": "Deny",
            "Action": [
                "workspaces:*"
            ],
            "Resource": "*",
            "Condition": {
                "StringNotEquals": {
                    "aws:PrincipalAccount": [
                        "533267031697"
                    ]
                }
            }
        },
        {
            "Sid": "DirectoryService",
            "Effect": "Deny",
            "Action": [
                "ds:*",
                "quicksight:*"
            ],
            "Resource": "*",
            "Condition": {
                "StringNotEquals": {
                    "aws:PrincipalAccount": [
                        "953051831925",
                        "857209606196",
                        "775999701029",
                        "533267031697",
                        "418617800149"
                    ]
                }
            }
        },
        {
			"Sid": "DirectoryServiceForQuickSight",
			"Effect": "Deny",
			"Action": [
                "ds:AcceptSharedDirectory",
                "ds:Connect*",
                "ds:CreateDirectory",
                "ds:CreateMicrosoftAD",
                "ds:ShareDirectory",
                "ds:Update*"
			],
			"Resource": [
				"*"
			],
			"Condition": {
				"StringEquals": {
					"aws:PrincipalAccount": [
						"857209606196",
                        "775999701029",
                        "418617800149"
					]
				}
			}
		},
        {
            "Sid": "RAMAccess",
            "Effect": "Deny",
            "Action": [
                "ram:CreateResourceShare",
                "ram:UpdateResourceShare",
                "ram:DeleteResourceShare",
                "ram:AssociateResourceShare",
                "ram:DisassociateResourceShare"
            ],
            "Resource": "*",
            "Condition": {
                "StringNotEquals": {
                    "aws:PrincipalAccount": [
                        "953051831925",
                        "979707920806"
                    ]
                }
            }
        },
        {
            "Sid": "EHCDataLakeKinesis",
            "Effect": "Deny",
            "Action": [
                "firehose:*",
                "kinesis:*",
                "kinesisanalytics:*"
            ],
            "Resource": "*",
            "Condition": {
                "StringNotEquals": {
                    "aws:PrincipalAccount": [
                        "953051831925",
                        "471112573534"
                    ]
                }
            }
        },
        {
            "Sid": "StorageGatewayAccountException",
            "Effect": "Deny",
            "Action": [
                "storagegateway:*"
            ],
            "Resource": "*",
            "Condition": {
                "StringNotEquals": {
                    "aws:PrincipalAccount": [
                        "331751311347",                        
                        "826732110279",
                        "900040921699"
                    ]
                }
            }
        },
        {
            "Sid": "DataBrewExceptionEHCDataLake",
            "Effect": "Deny",
            "Action": [
                "databrew:*"
            ],
            "Resource": [
                "*"
            ],
            "Condition": {
                "StringNotLike": {
                    "aws:PrincipalAccount": [
                        "953051831925",
                        "646932743348",
                        "979707920806"
                    ]
                }
            }
        },
        {
            "Sid": "SES",
            "Effect": "Deny",
            "Action": [
                "ses:*"
            ],
            "Resource": [
                "*"
            ],
            "Condition": {
                "StringNotLike": {
                    "aws:PrincipalAccount": [
                        "535337622517"
                    ]
                }
            }
        },
        {
            "Sid": "AllowAmazonVpcEndpoints",
            "Effect": "Deny",
            "Resource": [
                "arn:aws:ec2:*:*:vpc-endpoint/*"
            ],
            "Action": [
                "ec2:CreateVpcEndpoint"
            ],
            "Condition": {
                "StringNotEquals": {
                    "ec2:VpceServiceOwner": [
                        "amazon"
                    ]
                }
            }
        },
        {
            "Sid": "rhedcloudBlockWrite",
            "Effect": "Deny",
            "NotAction": [
                "iam:Get*",
                "iam:L*",
                "iam:S*",
                "glacier:Get*",
                "glacier:List*",
                "glacier:Desc*",
                "guardduty:Desc*",
                "guardduty:Get*",
                "guardduty:List*",
                "cloudtrail:Get*",
                "cloudtrail:List*",
                "cloudtrail:Desc*",
                "cloudtrail:LookupEvents",
                "cloudformation:Desc*",
                "cloudformation:Get*",
                "cloudformation:Estimate*",
                "cloudformation:List*",
                "events:Desc*",
                "events:List*",
                "events:Test*",
                "sts:AssumeRole"
            ],
            "Resource": [
                "arn:aws:iam::*:user/*",
                "arn:aws:iam::*:group/*",
                "arn:aws:iam::*:role/rhedcloud/*",
                "arn:aws:iam::*:policy/rhedcloud/*",
                "arn:aws:iam::*:role/aws-service-role/guardduty.amazonaws.com/AWSServiceRoleForAmazonGuardDuty",
                "arn:aws:iam::*:role/aws-service-role/organizations.amazonaws.com/AWSServiceRoleForOrganizations",
                "arn:aws:glacier:*:*:vaults/rhedcloud*",
                "arn:aws:guardduty:*:*:detector/*",
                "arn:aws:cloudtrail:*:*:trail/emory-*-org-cloudtrail",
                "arn:aws:cloudformation:*:*:stack/rhedcloud*/*",
                "arn:aws:cloudformation:*:*:stack/RHEDcloud*/*",
                "arn:aws:cloudformation:*:*:stack/RHEDCloud*/*",
                "arn:aws:cloudformation:*:*:changeSet/rhedcloud*",
                "arn:aws:cloudformation:*:*:changeSet/RHEDcloud*",
                "arn:aws:cloudformation:*:*:changeSet/RHEDCloud*",
                "arn:aws:events:*:*:rule/rhedcloud*"
            ],
            "Condition": {
                "StringNotLike": {
                    "aws:PrincipalArn": [
                        "arn:aws:iam::*:role/rhedcloud/RHEDcloudAwsAccountServiceRole",
                        "arn:aws:iam::*:role/rhedcloud/RHEDcloudMaintenanceOperatorRole",
                        "arn:aws:iam::*:role/rhedcloud/RHEDcloudSecurityRiskDetectionServiceRole",
                        "arn:aws:iam::*:role/rhedcloud/RHEDcloudSecurityIRRole"
                    ]
                }
            }
        },
        {
            "Sid": "IAMforSecurityRiskDetectionServiceRole",
            "Effect": "Deny",
            "NotAction": [
                "iam:Get*",
                "iam:List*",
                "iam:Tag*",
                "iam:UntagRole",
                "iam:UntagUser",
                "iam:UpdateAccessKey"
            ],
            "Resource": [
                "arn:aws:iam::*:user/*",
                "arn:aws:iam::*:group/*",
                "arn:aws:iam::*:role/rhedcloud/*",
                "arn:aws:iam::*:policy/rhedcloud/*"
            ],
            "Condition": {
                "StringLike": {
                    "aws:PrincipalArn": [
                        "arn:aws:iam::*:role/rhedcloud/RHEDcloudSecurityRiskDetectionServiceRole"
                    ]
                }
            }
        },
        {
            "Sid": "rhedcloudBlockAPI",
            "Action": [
                "transcribe:StartStreamTranscription"
            ],
            "Resource": "*",
            "Effect": "Deny"
        },
        {
            "Sid": "LogAlterationDeny1",
            "Effect": "Deny",
            "NotAction": [
                "logs:CancelExportTask",
                "logs:CreateExportTask",
                "logs:Desc*",
                "logs:FilterLogEvents",
                "logs:Get*",
                "logs:List*",
                "logs:Start*",
                "logs:Stop*",
                "logs:Test*"
            ],
            "Resource": [
                "arn:aws:logs:*:*:log-group:*-FlowLogs",
                "arn:aws:logs:*:*:log-group:*-FlowLogs:*",
                "arn:aws:logs:*:*:log-group:rhedcloud*",
                "arn:aws:logs:*:*:log-group:rhedcloud*:*",
                "arn:aws:logs:*:*:log-group:/aws/lambda/rhedcloud*",
                "arn:aws:logs:*:*:log-group:/aws/lambda/rhedcloud*:*"
            ],
            "Condition": {
                "StringNotLike": {
                    "aws:PrincipalArn": [
                        "arn:aws:iam::*:role/rhedcloud/RHEDcloudVpcFlowLogRole",
                        "arn:aws:iam::*:role/rhedcloud/RHEDcloudMaintenanceOperatorRole",
                        "arn:aws:iam::*:role/rhedcloud/RHEDcloudAwsAccountServiceRole",
                        "arn:aws:iam::*:role/rhedcloud/RHEDcloudSecurityRiskDetectionServiceRole"
                    ]
                }
            }
        },
        {
            "Sid": "LogAlterationDeny2",
            "Effect": "Deny",
            "Action": [
                "logs:Associate*",
                "logs:Delete*",
                "logs:Disassociate*",
                "logs:Tag*",
                "logs:Untag*",
                "logs:Update*"
            ],
            "Resource": [
                "arn:aws:logs:*:*:log-group:*-FlowLogs",
                "arn:aws:logs:*:*:log-group:*-FlowLogs:*",
                "arn:aws:logs:*:*:log-group:rhedcloud*",
                "arn:aws:logs:*:*:log-group:rhedcloud*:*",
                "arn:aws:logs:*:*:log-group:/aws/lambda/rhedcloud*",
                "arn:aws:logs:*:*:log-group:/aws/lambda/rhedcloud*:*"
            ],
            "Condition": {
                "StringNotLike": {
                    "aws:PrincipalArn": [
                        "arn:aws:iam::*:role/rhedcloud/RHEDcloudMaintenanceOperatorRole",
                        "arn:aws:iam::*:role/rhedcloud/RHEDcloudAwsAccountServiceRole"
                    ]
                }
            }
        },
        {
            "Sid": "rhedcloudBlockResources",
            "Action": "*",
            "Resource": [
                "arn:aws:sns:*:*:rhedcloud*",
                "arn:aws:sqs:*:*:rhedcloud*",
                "arn:aws:lambda:*:*:function:rhedcloud*",
                "arn:aws:lambda:*:*:function:rhedcloud*:*",
                "arn:aws:firehose:*:*:deliverystream/rhedcloud*",
                "arn:aws:kinesis:*:*:stream/rhedcloud*",
                "arn:aws:kinesisanalytics:*:*:application/rhedcloud*"
            ],
            "Effect": "Deny",
            "Condition": {
                "StringNotLike": {
                    "aws:PrincipalArn": [
                        "arn:aws:iam::*:role/rhedcloud/RHEDcloudAwsAccountServiceRole",
                        "arn:aws:iam::*:role/rhedcloud/RHEDcloudMaintenanceOperatorRole",
                        "arn:aws:iam::*:role/rhedcloud/RHEDcloudSecurityRiskDetectionServiceRole"
                    ]
                }
            }
        },
        {
            "Sid": "BlockRHEDcloudBucketsObjects",
            "NotAction": [
                "s3:Get*",
                "s3:List*"
            ],
            "Resource": [
                "arn:aws:s3:::aws-account-*-ct*",
                "arn:aws:s3:::emory-aws-*-ct*",
                "arn:aws:s3:::aws-stage-*-ct*",
                "arn:aws:s3:::aws-dev-*-ct*",
                "arn:aws:s3:::emory-*-org-*",
                "arn:aws:s3:::aws-account-*-ct*/*",
                "arn:aws:s3:::emory-aws-*-ct*/*",
                "arn:aws:s3:::aws-stage-*-ct*/*",
                "arn:aws:s3:::aws-dev-*-ct*/*",
                "arn:aws:s3:::emory-*-org-*/*"
            ],
            "Effect": "Deny",
            "Condition": {
                "StringNotLike": {
                    "aws:PrincipalArn": [
                        "arn:aws:iam::*:role/rhedcloud/RHEDcloudAwsAccountServiceRole",
                        "arn:aws:iam::*:role/rhedcloud/RHEDcloudMaintenanceOperatorRole",
                        "arn:aws:iam::*:role/rhedcloud/RHEDcloudSecurityRiskDetectionServiceRole"
                    ]
                }
            }
        },
        {
            "Sid": "BlockRHEDcloudBucketsObjects1",
            "Action": [
                "s3:Delete*"
            ],
            "Resource": [
                "arn:aws:s3:::aws-account-*-ct*",
                "arn:aws:s3:::emory-aws-*-ct*",
                "arn:aws:s3:::aws-stage-*-ct*",
                "arn:aws:s3:::aws-dev-*-ct*",
                "arn:aws:s3:::emory-*-org-*",
                "arn:aws:s3:::aws-account-*-ct*/*",
                "arn:aws:s3:::emory-aws-*-ct*/*",
                "arn:aws:s3:::aws-stage-*-ct*/*",
                "arn:aws:s3:::aws-dev-*-ct*/*",
                "arn:aws:s3:::emory-*-org-*/*"
            ],
            "Effect": "Deny"
        },
        {
            "Sid": "RHEDcloudSNSProtocolBlock",
            "Effect": "Deny",
            "Action": "sns:*",
            "Resource": "*",
            "Condition": {
                "ForAnyValue:StringNotEquals": {
                    "sns:Protocol": [
                        "sms",
                        "sqs",
                        "lambda",
                        "https",
                        "email",
                        "email-json"
                    ]
                }
            }
        },
        {
            "Sid": "DenyEc2InMgmtSubnets",
            "Effect": "Deny",
            "Action": [
                "ec2:*"
            ],
            "Resource": [ 
                "arn:aws:ec2:*:*:subnet/*" 
            ],   
            "Condition": {  
                "StringLike": {   
                    "aws:ResourceTag/Name": [
                        "MGMT1 - IT ONLY",
                        "MGMT2 - IT ONLY",
                        "Attachment Tier AZ-a",
                        "Attachment Tier AZ-b"
                    ]
                },
                "StringNotLike": {
                    "aws:PrincipalArn": [
                        "arn:aws:iam::*:role/rhedcloud/RHEDcloudAwsAccountServiceRole",
                        "arn:aws:iam::*:role/rhedcloud/RHEDcloudMaintenanceOperatorRole",
                        "arn:aws:iam::*:role/rhedcloud/RHEDcloudSecurityRiskDetectionServiceRole",
                        "arn:aws:iam::*:role/rhedcloud/RHEDcloudSecurityIRRole",
                        "arn:aws:iam::*:role/rhedcloud/RHEDcloudCentralAdministratorRole"
                    ]
                }
            }
        },
        {
            "Sid": "ElastiCacheRedisForceAuthToken",
            "Effect": "Deny",
            "Action": [
                "elasticache:*"
            ],
            "Resource": [
                "*"
            ],
            "Condition": {
                "StringEquals": {
                    "elasticache:EngineType": [
                        "redis"
                    ]
                },
                "Bool": {
                    "elasticache:AuthTokenEnabled": [
                        "false"
                    ]
                }
            }
        },
        {
            "Sid": "ElastiCacheRedisForceEncryptInTransit",
            "Effect": "Deny",
            "Action": [
                "elasticache:*"
            ],
            "Resource": [
                "*"
            ],
            "Condition": {
                "StringEquals": {
                    "elasticache:EngineType": [
                        "redis"
                    ]
                },
                "Bool": {
                    "elasticache:TransitEncryptionEnabled": [
                        "false"
                    ]
                }
            }
        },
        {
            "Sid": "ElastiCacheRedisForceEncryptAtRest",
            "Effect": "Deny",
            "Action": [
                "elasticache:*"
            ],
            "Resource": [
                "*"
            ],
            "Condition": {
                "StringEquals": {
                    "elasticache:EngineType": [
                        "redis"
                    ]
                },
                "Bool": {
                    "elasticache:AtRestEncryptionEnabled": [
                        "false"
                    ]
                }
            }
        },
        {
            "Sid": "Ec2Block",
            "Effect": "Deny",
            "NotAction": [
                "ec2:AcceptReservedInstancesExchangeQuote",
                "ec2:AllocateAddress",
                "ec2:AllocateHosts",
                "ec2:AssignIpv6Addresses",
                "ec2:AssignPrivateIpAddresses",
                "ec2:AssociateAddress",
                "ec2:AssociateIamInstanceProfile",
                "ec2:AttachVolume",
                "ec2:AuthorizeSecurityGroupEgress",
                "ec2:AuthorizeSecurityGroupIngress",
                "ec2:BundleInstance",
                "ec2:CancelBundleTask",
                "ec2:CancelCapacityReservation",
                "ec2:CancelCapacityReservationFleets",
                "ec2:CancelConversionTask",
                "ec2:CancelExportTask",
                "ec2:CancelImportTask",
                "ec2:CancelReservedInstancesListing",
                "ec2:CancelSpotFleetRequests",
                "ec2:CancelSpotInstanceRequests",
                "ec2:ConfirmProductInstance",
                "ec2:CopyFpgaImage",
                "ec2:CopyImage",
                "ec2:CopySnapshot",
                "ec2:CreateCapacityReservation",
                "ec2:CreateCapacityReservationFleet",
                "ec2:CreateFleet",
                "ec2:CreateFpgaImage",
                "ec2:CreateImage",
                "ec2:CreateInstanceExportTask",
                "ec2:CreateKeyPair",
                "ec2:CreateLaunchTemplate",
                "ec2:CreateLaunchTemplateVersion",
                "ec2:CreateNetworkInterface",
                "ec2:CreateNetworkInterfacePermission",
                "ec2:CreatePlacementGroup",
                "ec2:CreateReplaceRootVolumeTask",
                "ec2:CreateReservedInstancesListing",
                "ec2:CreateSecurityGroup",
                "ec2:CreateSnapshot",
                "ec2:CreateSpotDatafeedSubscription",
                "ec2:CreateSubnetCidrReservation",
                "ec2:CreateTags",
                "ec2:CreateVolume",
                "ec2:CreateVpcEndpoint",
                "ec2:DeleteFleets",
                "ec2:DeleteFpgaImage",
                "ec2:DeleteKeyPair",
                "ec2:DeleteLaunchTemplate",
                "ec2:DeleteLaunchTemplateVersions",
                "ec2:DeleteNetworkInterface",
                "ec2:DeleteNetworkInterfacePermission",
                "ec2:DeletePlacementGroup",
                "ec2:DeleteSecurityGroup",
                "ec2:DeleteSnapshot",
                "ec2:DeleteSpotDatafeedSubscription",
                "ec2:DeleteSubnetCidrReservation",
                "ec2:DeleteTags",
                "ec2:DeleteVolume",
                "ec2:DeleteVpcEndpoints",
                "ec2:DeregisterImage",
                "ec2:Describe*",
                "ec2:DetachNetworkInterface",
                "ec2:DetachVolume",
                "ec2:DisassociateAddress",
                "ec2:DisassociateIamInstanceProfile",
                "ec2:EnableVolumeIO",
                "ec2:GetCapacityReservationUsage",
                "ec2:GetConsoleOutput",
                "ec2:GetConsoleScreenshot",
                "ec2:GetGroupsForCapacityReservation",
                "ec2:GetHostReservationPurchasePreview",
                "ec2:GetLaunchTemplateData",
                "ec2:GetManagedPrefixListEntries",
                "ec2:GetPasswordData",
                "ec2:GetReservedInstancesExchangeQuote",
                "ec2:GetSecurityGroupsForVpc",
                "ec2:GetSubnetCidrReservations",
                "ec2:ImportImage",
                "ec2:ImportInstance",
                "ec2:ImportKeyPair",
                "ec2:ImportSnapshot",
                "ec2:ImportVolume",
                "ec2:ModifyCapacityReservation",
                "ec2:ModifyCapacityReservationFleet",
                "ec2:ModifyFleet",
                "ec2:ModifyFpgaImageAttribute",
                "ec2:ModifyHosts",
                "ec2:ModifyIdentityIdFormat",
                "ec2:ModifyIdFormat",
                "ec2:ModifyImageAttribute",
                "ec2:ModifyInstanceAttribute",
                "ec2:ModifyInstanceCapacityReservationAttributes",
                "ec2:ModifyInstanceCreditSpecification",
                "ec2:ModifyInstanceMetadataOptions",
                "ec2:ModifyInstancePlacement",
                "ec2:ModifyLaunchTemplate",
                "ec2:ModifyNetworkInterfaceAttribute",
                "ec2:ModifyPrivateDnsNameOptions",
                "ec2:ModifyReservedInstances",
                "ec2:ModifySecurityGroupRules",
                "ec2:ModifySnapshotAttribute",
                "ec2:ModifySpotFleetRequest",
                "ec2:ModifyVolume",
                "ec2:ModifyVolumeAttribute",
                "ec2:ModifyVpcEndpoint",
                "ec2:MonitorInstances",
                "ec2:PurchaseCapacityBlock",
                "ec2:PurchaseHostReservation",
                "ec2:PurchaseReservedInstancesOffering",
                "ec2:PurchaseScheduledInstances",
                "ec2:RebootInstances",
                "ec2:RegisterImage",
                "ec2:ReleaseAddress",
                "ec2:ReleaseHosts",
                "ec2:ReplaceIamInstanceProfileAssociation",
                "ec2:ReportInstanceStatus",
                "ec2:RequestSpotFleet",
                "ec2:RequestSpotInstances",
                "ec2:ResetFpgaImageAttribute",
                "ec2:ResetImageAttribute",
                "ec2:ResetInstanceAttribute",
                "ec2:ResetNetworkInterfaceAttribute",
                "ec2:ResetSnapshotAttribute",
                "ec2:RestoreAddressToClassic",
                "ec2:RevokeSecurityGroupEgress",
                "ec2:RevokeSecurityGroupIngress",
                "ec2:RunInstances",
                "ec2:RunScheduledInstances",
                "ec2:StartInstances",
                "ec2:StopInstances",
                "ec2:TerminateInstances",
                "ec2:UnassignIpv6Addresses",
                "ec2:UnassignPrivateIpAddresses",
                "ec2:UnmonitorInstances",
                "ec2:UpdateSecurityGroupRuleDescriptionsEgress",
                "ec2:UpdateSecurityGroupRuleDescriptionsIngress",
                "imagebuilder:ImportVmImage",
                "mediastore:*",
                "ssm:CreateAssociation",
                "ssm:DescribeInstanceAssociationsStatus",
                "ssm:ListInstanceAssociations",
                "ssm:PutInventory",
                "ssm:UpdateInstanceInformation",
                "ssmmessages:CreateControlChannel"
            ],
            "Resource": [
                "arn:aws:ec2:*:*:*"
            ],
            "Condition": {
                "StringNotLike": {
                    "aws:PrincipalArn": [
                        "arn:aws:iam::*:role/rhedcloud/RHEDcloudAwsAccountServiceRole",
                        "arn:aws:iam::*:role/rhedcloud/RHEDcloudMaintenanceOperatorRole",
                        "arn:aws:iam::*:role/rhedcloud/RHEDcloudSecurityRiskDetectionServiceRole",
                        "arn:aws:iam::*:role/rhedcloud/RHEDcloudSecurityIRRole"
                    ]
                }
            }
        },
        {
            "Sid": "RHEDcloudRegionBlock",
            "Action": "*",
            "Resource": "*",
            "Effect": "Deny",
            "Condition": {
                "StringNotLike": {
                    "aws:PrincipalArn": [
                        "arn:aws:iam::*:role/rhedcloud/RHEDcloudAwsAccountServiceRole",
                        "arn:aws:iam::*:role/rhedcloud/RHEDcloudMaintenanceOperatorRole",
                        "arn:aws:iam::*:role/rhedcloud/RHEDcloudSecurityRiskDetectionServiceRole",
                        "arn:aws:iam::*:role/rhedcloud/RHEDcloudSecurityIRRole"
                    ]
                },
                "StringNotEquals": {
                    "aws:RequestedRegion": [         
                        "us-east-1",        
                        "us-east-2",        
                        "us-west-1",     
                        "us-west-2"       
                    ]
                }
            }
        },
        {
            "Sid": "rhedcloudRDSBlock",
            "Action": "rds:CreateDBInstance",
            "Resource": "*",
            "Effect": "Deny",
            "Condition": {
                "StringNotEquals": {
                    "rds:DatabaseEngine": [
                        "aurora-mysql",
                        "aurora-postgresql",
                        "docdb",
                        "manfred",
                        "mariadb",
                        "mysql",
                        "oracle-ee",
                        "oracle-se",
                        "oracle-se1",
                        "oracle-se2",
                        "oscar",
                        "postgres",
                        "sqlserver-ee",
                        "sqlserver-se",
                        "sqlserver-web"
                    ]
                }
            }
        },
        {
            "Sid": "POL065RdsUnencryptedDatabase",
            "Effect": "Deny",
            "Action": "rds:CreateDBInstance",
            "Resource": "*",
            "Condition": {
                "ForAnyValue:StringEquals": {
                    "rds:DatabaseEngine": [
                        "mariadb",
                        "mysql",
                        "oracle-ee",
                        "oracle-ee-cdb",
                        "oracle-se2",
                        "oracle-se2-cdb",
                        "postgres",
                        "sqlserver-ee",
                        "sqlserver-se",
                        "sqlserver-web"
                    ]
                },
                "ForAnyValue:Bool": {
                    "rds:StorageEncrypted": "false"
                }
            }
        },
        {
            "Sid": "POL054RdsHipaaIneligibleMemcached",
            "Effect": "Deny",
            "Action": [
                "elasticache:*"
            ],
            "Resource": [
                "*"
            ],
            "Condition": {
                "StringEquals": {
                    "elasticache:EngineType": [
                        "memcached"
                    ]
                }
            }
        }
    ]
}
